{
    "KPlugin": {
        "Description": "Configure KRunner behavior",
        "Description[ar]": "اضبط سلوك مشغل.ك",
        "Description[az]": "KRunner davranışlarını ayarlamaq",
        "Description[ca@valencia]": "Configura el comportament de KRunner",
        "Description[ca]": "Configura el comportament del KRunner",
        "Description[en_GB]": "Configure KRunner behaviour",
        "Description[es]": "Configurar el comportamiento de KRunner",
        "Description[fi]": "KRunnerin toiminta-asetukset",
        "Description[fr]": "Configurer le comportement de KRunner",
        "Description[ia]": "Configura le comportamento de KRunner",
        "Description[id]": "Konfigurasikan perilaku KRunner",
        "Description[it]": "Configura il comportamento di KRunner",
        "Description[ko]": "KRunner 행동 설정",
        "Description[nl]": "Gedrag van KRunner configureren",
        "Description[pl]": "Ustawienia zachowania KRunnera",
        "Description[pt]": "Configurar o comportamento do KRunner",
        "Description[pt_BR]": "Configurar comportamento do KRunner",
        "Description[ro]": "Configurează comportamentul KRunner",
        "Description[sk]": "Nastaviť správanie KRunner",
        "Description[sl]": "Nastavi obnašanje programa KRunner",
        "Description[sv]": "Anpassa beteende för Kör program",
        "Description[ta]": "கேரன்னரின் நடத்தையை மாற்றியமையுங்கள்",
        "Description[tr]": "KRunner davranışını yapılandır",
        "Description[uk]": "Налаштувати поведінку KRunner",
        "Description[vi]": "Cấu hình ứng xử của KRunner",
        "Description[x-test]": "xxConfigure KRunner behaviorxx",
        "Description[zh_CN]": "配置 KRunner 行为",
        "Icon": "krunner",
        "License": "GPL",
        "Name": "KRunner Settings",
        "Name[ar]": "إعدادات مشغل.ك",
        "Name[az]": "KRunner ayarları",
        "Name[ca@valencia]": "Configuració de KRunner",
        "Name[ca]": "Configuració del KRunner",
        "Name[en_GB]": "KRunner Settings",
        "Name[es]": "Preferencias de KRunner",
        "Name[fi]": "KRunnerin asetukset",
        "Name[fr]": "Configuration de KRunner",
        "Name[ia]": "Preferentias de KRunner",
        "Name[id]": "Pengaturan KRunner",
        "Name[it]": "Impostazioni di KRunner",
        "Name[ko]": "KRunner 설정",
        "Name[nl]": "Instellingen van KRunner",
        "Name[pl]": "Ustawienia KRunnera",
        "Name[pt]": "Configurações do KRunner",
        "Name[pt_BR]": "Configurações do KRunner",
        "Name[ro]": "Configurări KRunner",
        "Name[sk]": "KRunner nastavenia",
        "Name[sl]": "Nastavitve za KRunner",
        "Name[sv]": "Snabbinställningar av Kör program",
        "Name[ta]": "கேரன்னர் அமைப்புகள்",
        "Name[tr]": "KRunner Ayarları",
        "Name[uk]": "Параметри KRunner",
        "Name[vi]": "Thiết lập KRunner",
        "Name[x-test]": "xxKRunner Settingsxx",
        "Name[zh_CN]": "KRunner 设置"
    }
}
